{"docs":[{"_id":"59b86729d22c775be0d6b637","id":501,"name_lower":"aeduci","edsm_id":8869,"name":"Aeduci","x":-138.40625,"y":81.28125,"z":-12.09375,"population":20938,"is_populated":true,"government_id":48,"government":"confederacy","allegiance_id":4,"allegiance":"independent","state_id":80,"state":"none","security_id":16,"security":"low","primary_economy_id":2,"primary_economy":"extraction","power":null,"power_state":null,"power_state_id":null,"needs_permit":false,"updated_at":"2017-12-08T12:27:37.000Z","simbad_ref":"","controlling_minor_faction_id":1714,"controlling_minor_faction":"the l.o.s.p.","reserve_type_id":1,"reserve_type":"pristine","minor_faction_presences":[{"state":"none","influence":5.2,"state_id":80,"minor_faction_id":20029,"_id":"5a2c854c39de3a1211cd7126"},{"state":"none","influence":1,"state_id":80,"minor_faction_id":20030,"_id":"5a2c854c39de3a1211cd7125"},{"state":"none","influence":9.2,"state_id":80,"minor_faction_id":20031,"_id":"5a2c854c39de3a1211cd7124"},{"state":"none","influence":55,"state_id":80,"minor_faction_id":1714,"_id":"5a2c854c39de3a1211cd7123"},{"state":"famine","influence":14.8,"state_id":37,"minor_faction_id":19842,"_id":"5a2c854c39de3a1211cd7122"},{"state":"none","influence":14.8,"state_id":80,"minor_faction_id":58370,"_id":"5a2c854c39de3a1211cd7121"}],"__v":0},{"_id":"59b86736d22c775be0d6c48f","id":1850,"name_lower":"batani","edsm_id":16656,"name":"Batani","x":-134.03125,"y":57.34375,"z":-26.53125,"population":33328,"is_populated":true,"government_id":48,"government":"confederacy","allegiance_id":4,"allegiance":"independent","state_id":80,"state":"none","security_id":32,"security":"medium","primary_economy_id":2,"primary_economy":"extraction","power":null,"power_state":null,"power_state_id":null,"needs_permit":false,"updated_at":"2017-12-08T12:30:26.000Z","simbad_ref":"","controlling_minor_faction_id":1714,"controlling_minor_faction":"the l.o.s.p.","reserve_type_id":null,"reserve_type":null,"minor_faction_presences":[{"state":"none","influence":22.3223,"state_id":80,"minor_faction_id":1711,"_id":"5a2c855039de3a1211cd8f55"},{"state":"none","influence":7.5075,"state_id":80,"minor_faction_id":1712,"_id":"5a2c855039de3a1211cd8f54"},{"state":"none","influence":5.2052,"state_id":80,"minor_faction_id":1713,"_id":"5a2c855039de3a1211cd8f53"},{"state":"none","influence":64.965,"state_id":80,"minor_faction_id":1714,"_id":"5a2c855039de3a1211cd8f52"}],"__v":0},{"_id":"59b86738d22c775be0d6c967","id":2311,"name_lower":"bhottada","edsm_id":9411,"name":"Bhottada","x":-113.28125,"y":69.96875,"z":-13.75,"population":45096,"is_populated":true,"government_id":16,"government":"anarchy","allegiance_id":4,"allegiance":"independent","state_id":16,"state":"boom","security_id":64,"security":"anarchy","primary_economy_id":5,"primary_economy":"military","power":null,"power_state":null,"power_state_id":null,"needs_permit":false,"updated_at":"2017-12-08T12:48:56.000Z","simbad_ref":"","controlling_minor_faction_id":26400,"controlling_minor_faction":"children of raxxla","reserve_type_id":3,"reserve_type":"common","minor_faction_presences":[{"state":"none","influence":3.6,"state_id":80,"minor_faction_id":26396,"_id":"5a2c855139de3a1211cd9a02"},{"state":"none","influence":6.3,"state_id":80,"minor_faction_id":26397,"_id":"5a2c855139de3a1211cd9a01"},{"state":"none","influence":9.5,"state_id":80,"minor_faction_id":26398,"_id":"5a2c855139de3a1211cd9a00"},{"state":"none","influence":6.6,"state_id":80,"minor_faction_id":26399,"_id":"5a2c855139de3a1211cd99ff"},{"state":"boom","influence":40.6,"state_id":16,"minor_faction_id":26400,"_id":"5a2c855139de3a1211cd99fe"},{"state":"none","influence":10.4,"state_id":80,"minor_faction_id":1823,"_id":"5a2c855139de3a1211cd99fd"},{"state":"none","influence":23,"state_id":80,"minor_faction_id":1714,"_id":"5a2c855139de3a1211cd99fc"}],"__v":0},{"_id":"59b86739d22c775be0d6cb64","id":2492,"name_lower":"bogatiku","edsm_id":2409,"name":"Bogatiku","x":-126.625,"y":45.71875,"z":-12.5625,"population":4406130,"is_populated":true,"government_id":48,"government":"confederacy","allegiance_id":4,"allegiance":"independent","state_id":80,"state":"none","security_id":32,"security":"medium","primary_economy_id":4,"primary_economy":"industrial","power":null,"power_state":null,"power_state_id":null,"needs_permit":false,"updated_at":"2017-12-08T23:36:05.000Z","simbad_ref":"","controlling_minor_faction_id":1714,"controlling_minor_faction":"the l.o.s.p.","reserve_type_id":1,"reserve_type":"pristine","minor_faction_presences":[{"state":"none","influence":15.3,"state_id":80,"minor_faction_id":28587,"_id":"5a2c855239de3a1211cd9e22"},{"state":"boom","influence":15.7,"state_id":16,"minor_faction_id":28588,"_id":"5a2c855239de3a1211cd9e21"},{"state":"none","influence":11.1,"state_id":80,"minor_faction_id":28589,"_id":"5a2c855239de3a1211cd9e20"},{"state":"famine","influence":7.9,"state_id":37,"minor_faction_id":28590,"_id":"5a2c855239de3a1211cd9e1f"},{"state":"outbreak","influence":11.4,"state_id":72,"minor_faction_id":28591,"_id":"5a2c855239de3a1211cd9e1e"},{"state":"none","influence":38.6,"state_id":80,"minor_faction_id":1714,"_id":"5a2c855239de3a1211cd9e1d"}],"__v":0},{"_id":"59b8673bd22c775be0d6cfa7","id":2882,"name_lower":"capura","edsm_id":8735,"name":"Capura","x":-143.375,"y":62.375,"z":-3.21875,"population":148398,"is_populated":true,"government_id":96,"government":"democracy","allegiance_id":3,"allegiance":"federation","state_id":80,"state":"none","security_id":32,"security":"medium","primary_economy_id":8,"primary_economy":"terraforming","power":null,"power_state":null,"power_state_id":null,"needs_permit":false,"updated_at":"2017-12-08T12:51:10.000Z","simbad_ref":"","controlling_minor_faction_id":10442,"controlling_minor_faction":"union of capura free","reserve_type_id":null,"reserve_type":null,"minor_faction_presences":[{"state":"none","influence":24.1,"state_id":80,"minor_faction_id":10442,"_id":"5a2c855339de3a1211cda6e8"},{"state":"outbreak","influence":4.5,"state_id":72,"minor_faction_id":10444,"_id":"5a2c855339de3a1211cda6e7"},{"state":"none","influence":8.8,"state_id":80,"minor_faction_id":10445,"_id":"5a2c855339de3a1211cda6e6"},{"state":"boom","influence":3.2,"state_id":16,"minor_faction_id":10446,"_id":"5a2c855339de3a1211cda6e5"},{"state":"none","influence":59.4,"state_id":80,"minor_faction_id":1714,"_id":"5a2c855339de3a1211cda6e4"}],"__v":0},{"_id":"59b86746d22c775be0d6e4bb","id":4998,"name_lower":"gadagua","edsm_id":2122,"name":"Gadagua","x":-118.5625,"y":68.6875,"z":-13.40625,"population":2110,"is_populated":true,"government_id":48,"government":"confederacy","allegiance_id":4,"allegiance":"independent","state_id":80,"state":"none","security_id":16,"security":"low","primary_economy_id":11,"primary_economy":"colony","power":null,"power_state":null,"power_state_id":null,"needs_permit":false,"updated_at":"2017-12-08T18:53:15.000Z","simbad_ref":"","controlling_minor_faction_id":1714,"controlling_minor_faction":"the l.o.s.p.","reserve_type_id":null,"reserve_type":null,"minor_faction_presences":[{"state":"none","influence":38.1,"state_id":80,"minor_faction_id":6749,"_id":"5a2c855a39de3a1211cdd360"},{"state":"none","influence":3.8,"state_id":80,"minor_faction_id":26539,"_id":"5a2c855a39de3a1211cdd35f"},{"state":"boom","influence":14.6,"state_id":16,"minor_faction_id":63533,"_id":"5a2c855a39de3a1211cdd35e"},{"state":"none","influence":43.5,"state_id":80,"minor_faction_id":1714,"_id":"5a2c855a39de3a1211cdd35d"}],"__v":0},{"_id":"59b86748d22c775be0d6eb04","id":5579,"name_lower":"guo chima","edsm_id":12306,"name":"Guo Chima","x":-130.21875,"y":62.34375,"z":-11.25,"population":1147080,"is_populated":true,"government_id":48,"government":"confederacy","allegiance_id":4,"allegiance":"independent","state_id":80,"state":"none","security_id":32,"security":"medium","primary_economy_id":4,"primary_economy":"industrial","power":null,"power_state":null,"power_state_id":null,"needs_permit":false,"updated_at":"2017-12-08T11:58:14.000Z","simbad_ref":"","controlling_minor_faction_id":1714,"controlling_minor_faction":"the l.o.s.p.","reserve_type_id":1,"reserve_type":"pristine","minor_faction_presences":[{"state":"none","influence":2.7,"state_id":80,"minor_faction_id":63449,"_id":"5a2c855d39de3a1211cde088"},{"state":"none","influence":4.9,"state_id":80,"minor_faction_id":63450,"_id":"5a2c855d39de3a1211cde087"},{"state":"none","influence":5,"state_id":80,"minor_faction_id":63451,"_id":"5a2c855d39de3a1211cde086"},{"state":"none","influence":60.3,"state_id":80,"minor_faction_id":63452,"_id":"5a2c855d39de3a1211cde085"},{"state":"none","influence":3.6,"state_id":80,"minor_faction_id":63453,"_id":"5a2c855d39de3a1211cde084"},{"state":"none","influence":23.5,"state_id":80,"minor_faction_id":1714,"_id":"5a2c855d39de3a1211cde083"}],"__v":0},{"_id":"59b86749d22c775be0d6ebc9","id":5646,"name_lower":"haidjaram","edsm_id":8026,"name":"Haidjaram","x":-126.3125,"y":57.28125,"z":-24.1875,"population":809782189,"is_populated":true,"government_id":96,"government":"democracy","allegiance_id":3,"allegiance":"federation","state_id":16,"state":"boom","security_id":48,"security":"high","primary_economy_id":4,"primary_economy":"industrial","power":null,"power_state":null,"power_state_id":null,"needs_permit":false,"updated_at":"2017-12-08T12:22:10.000Z","simbad_ref":"","controlling_minor_faction_id":43022,"controlling_minor_faction":"united haidjaram labour","reserve_type_id":null,"reserve_type":null,"minor_faction_presences":[{"state":"boom","influence":20.5794,"state_id":16,"minor_faction_id":43022,"_id":"5a2c855d39de3a1211cde213"},{"state":"none","influence":9.8901,"state_id":80,"minor_faction_id":43023,"_id":"5a2c855d39de3a1211cde212"},{"state":"none","influence":5.994,"state_id":80,"minor_faction_id":43024,"_id":"5a2c855d39de3a1211cde211"},{"state":"none","influence":2.6973,"state_id":80,"minor_faction_id":43025,"_id":"5a2c855d39de3a1211cde210"},{"state":"none","influence":4.5954,"state_id":80,"minor_faction_id":43026,"_id":"5a2c855d39de3a1211cde20f"},{"state":"none","influence":56.2438,"state_id":80,"minor_faction_id":1714,"_id":"5a2c855d39de3a1211cde20e"}],"__v":0},{"_id":"59b86755d22c775be0d70a75","id":8732,"name_lower":"hip 85575","edsm_id":12092,"name":"HIP 85575","x":-123.28125,"y":80.5625,"z":-7.28125,"population":2206,"is_populated":true,"government_id":48,"government":"confederacy","allegiance_id":4,"allegiance":"independent","state_id":80,"state":"none","security_id":16,"security":"low","primary_economy_id":11,"primary_economy":"colony","power":null,"power_state":null,"power_state_id":null,"needs_permit":false,"updated_at":"2017-12-08T22:37:32.000Z","simbad_ref":"hip 85575","controlling_minor_faction_id":1714,"controlling_minor_faction":"the l.o.s.p.","reserve_type_id":2,"reserve_type":"major","minor_faction_presences":[{"state":"famine","influence":5.1,"state_id":37,"minor_faction_id":5202,"_id":"5a2c856639de3a1211ce2162"},{"state":"none","influence":1,"state_id":80,"minor_faction_id":5204,"_id":"5a2c856639de3a1211ce2161"},{"state":"none","influence":14.1,"state_id":80,"minor_faction_id":5205,"_id":"5a2c856639de3a1211ce2160"},{"state":"none","influence":55.2,"state_id":80,"minor_faction_id":1714,"_id":"5a2c856639de3a1211ce215f"},{"state":"boom","influence":24.6,"state_id":16,"minor_faction_id":26400,"_id":"5a2c856639de3a1211ce215e"}],"__v":0},{"_id":"59b86755d22c775be0d70c40","id":8921,"name_lower":"hip 94501","edsm_id":13231,"name":"HIP 94501","x":-136.28125,"y":50.53125,"z":-1.21875,"population":11009079,"is_populated":true,"government_id":96,"government":"democracy","allegiance_id":3,"allegiance":"federation","state_id":80,"state":"none","security_id":32,"security":"medium","primary_economy_id":4,"primary_economy":"industrial","power":null,"power_state":null,"power_state_id":null,"needs_permit":false,"updated_at":"2017-12-08T23:28:44.000Z","simbad_ref":"hip 94501","controlling_minor_faction_id":37548,"controlling_minor_faction":"independent hip 94501 liberals","reserve_type_id":null,"reserve_type":null,"minor_faction_presences":[{"state":"none","influence":22.9541,"state_id":80,"minor_faction_id":37548,"_id":"5a2c856739de3a1211ce2534"},{"state":"famine","influence":2.0958,"state_id":37,"minor_faction_id":37549,"_id":"5a2c856739de3a1211ce2533"},{"state":"none","influence":16.8663,"state_id":80,"minor_faction_id":37550,"_id":"5a2c856739de3a1211ce2532"},{"state":"none","influence":0.998,"state_id":80,"minor_faction_id":37551,"_id":"5a2c856739de3a1211ce2531"},{"state":"none","influence":38.8224,"state_id":80,"minor_faction_id":1684,"_id":"5a2c856739de3a1211ce2530"},{"state":"none","influence":11.7764,"state_id":80,"minor_faction_id":1714,"_id":"5a2c856739de3a1211ce252f"},{"state":"none","influence":6.487,"state_id":80,"minor_faction_id":10442,"_id":"5a2c856739de3a1211ce252e"}],"__v":0}],"total":29,"limit":10,"page":1,"pages":3}